{
  "variables": {
    "centos_tag": "7"
  },
  "builders": [
    {
      "type": "docker",
      "image": "centos:{{user `centos_tag`}}",
      "commit": true,
      "changes": [
        "ENV container docker",
        "VOLUME /sys/fs/cgroup",
        "CMD [\"/usr/sbin/init\"]"
      ]
    }
  ],
  "provisioners": [
    {
      "type": "shell",
      "script": "./provision.sh"
    }
  ],
  "post-processors": [
    [
      {
        "type": "docker-tag",
        "repository": "europeanspallationsource/centos-systemd",
        "tag": "{{user `centos_tag`}}"
      },
        "docker-push"
    ]
  ]
}
